%YAML 1.1
%TAG !u! tag:unity3d.com,2011:
--- !u!21 &2100000
Material:
  serializedVersion: 3
  m_ObjectHideFlags: 0
  m_PrefabParentObject: {fileID: 0}
  m_PrefabInternal: {fileID: 0}
  m_Name: unity_soldier_body_dif_wip
  m_Shader: {fileID: 4, guid: 0000000000000000f000000000000000, type: 0}
  m_ShaderKeywords: []
  m_CustomRenderQueue: -1
  m_SavedProperties:
    serializedVersion: 2
    m_TexEnvs:
      data:
        first:
          name: _MainTex
        second:
          m_Texture: {fileID: 2800000, guid: 8d296705ab1a045e28334045f78b2537, type: 3}
          m_Scale: {x: 1, y: 1}
          m_Offset: {x: 0, y: 0}
      data:
        first:
          name: _BumpMap
        second:
          m_Texture: {fileID: 2800000, guid: 27f014ef07a649e448b2e9af69f869df, type: 3}
          m_Scale: {x: 1, y: 1}
          m_Offset: {x: 0, y: 0}
    m_Floats:
      data:
        first:
          name: _Shininess
        second: .119574919
    m_Colors:
      data:
        first:
          name: _Color
        second: {r: .424147934, g: .443963259, b: .477611959, a: 1}
      data:
        first:
          name: _SpecColor
        second: {r: .388059676, g: .388059676, b: .388059676, a: 1}
--- !u!1002 &2100001
EditorExtensionImpl:
  serializedVersion: 6
